module github.com/linuxsuren/http-downloader

go 1.16

require (
	github.com/AlecAivazis/survey/v2 v2.3.2
	github.com/go-git/go-git/v5 v5.4.2
	github.com/golang/mock v1.6.0
	github.com/google/go-github/v29 v29.0.3
	github.com/gosuri/uiprogress v0.0.1
	github.com/linuxsuren/cobra-extension v0.0.12
	github.com/magiconair/properties v1.8.5
	github.com/mitchellh/go-homedir v1.1.0
	github.com/onsi/ginkgo v1.16.4
	github.com/onsi/gomega v1.16.0
	github.com/spf13/cobra v1.2.1
	github.com/spf13/pflag v1.0.5
	github.com/spf13/viper v1.9.0
	github.com/stretchr/testify v1.7.0
	github.com/xi2/xz v0.0.0-20171230120015-48954b6210f8
	gopkg.in/yaml.v2 v2.4.0
		github.com/h2non/gock v1.0.9
)
